{
  "results": [{
    "id": 10000002,
    "type": "problem-report",
    "what_doing": "doing 2",
    "what_wrong": "wrong 2",
    "user_agent": "Mozilla/5.0 (Windows NT 10.0; Win64; x64) AppleWebKit/537.36 (KHTML, like Gecko) Chrome/71.0.3578.98 Safari/537.36",
    "referrer": "unknown",
    "created_at": "2019-01-10T15:45:55.545Z",
    "path": "/guidance/annual-tax-summary",
    "marked_as_spam": false,
    "reviewed": false,
    "url": "https://www.integration.publishing.service.gov.uk/guidance/annual-tax-summary"
  }], "total_count": 3, "current_page": 2, "pages": 3, "page_size": 1, "from_date": "2019-01-10", "to_date": "2019-03-11"
}
