{
  "results": [{
    "id": 10000003,
    "type": "problem-report",
    "what_doing": "doing 3",
    "what_wrong": "wrong 3",
    "user_agent": "Mozilla/5.0 (Windows NT 10.0; Win64; x64) AppleWebKit/537.36 (KHTML, like Gecko) Chrome/70.0.3538.102 Safari/537.36 OPR/57.0.3098.116",
    "referrer": "https://www.gov.uk/number-plate-supplier",
    "created_at": "2019-01-10T15:44:03.429Z",
    "path": "/number-plate-supplier",
    "marked_as_spam": false,
    "reviewed": false,
    "url": "https://www.integration.publishing.service.gov.uk/number-plate-supplier"
  }], "total_count": 3, "current_page": 3, "pages": 3, "page_size": 1, "from_date": "2019-01-10", "to_date": "2019-03-11"
}
